RESTRAINT MINIMIZATION
&cntrl
   imin=1,         ! Minimization
   irest=0,        ! DEFAULT: No restart
   ntb=1,          ! DEFAULT: Periodic boundary conditions with constant volume
   cut=10.0,       ! Non Bounded cutoff in Angstrom (DEFAULT 8.0)
   maxcyc=50000,   ! Maximum number of cycles of minimization (DEFAULT 1)
   ncyc=300,       ! Number of initial cycles by using steepest descent method (DEFAULT 10)
   ntr=1,          ! Position restraints (DEFAULT 0)
/
Restraints on solute
500.0
RES 1
END
END
